/Users/miguel/Documents/Mecenas/mecenas/src/main/java/com/mecenas/AlchemyReport.java
/Users/miguel/Documents/Mecenas/mecenas/src/main/java/com/mecenas/Coordinator.java
/Users/miguel/Documents/Mecenas/mecenas/src/main/java/com/mecenas/dataobjects/Keyword.java
/Users/miguel/Documents/Mecenas/mecenas/src/main/java/com/mecenas/WebCrawlerResult.java
/Users/miguel/Documents/Mecenas/mecenas/src/main/java/com/mecenas/AlchemyResult.java
/Users/miguel/Documents/Mecenas/mecenas/src/main/java/com/mecenas/util/db/DBAccess.java
/Users/miguel/Documents/Mecenas/mecenas/src/main/java/com/mecenas/util/HttpHandler.java
/Users/miguel/Documents/Mecenas/mecenas/src/main/java/com/mecenas/dataobjects/DocEmotions.java
/Users/miguel/Documents/Mecenas/mecenas/src/main/java/com/mecenas/WebCrawlerReport.java
/Users/miguel/Documents/Mecenas/mecenas/src/main/java/com/mecenas/dataobjects/Sentiment.java
/Users/miguel/Documents/Mecenas/mecenas/src/main/java/com/mecenas/GoogleTrend.java
/Users/miguel/Documents/Mecenas/mecenas/src/main/java/com/mecenas/dataobjects/SentimentType.java
/Users/miguel/Documents/Mecenas/mecenas/src/main/java/com/mecenas/webservice/Application.java
/Users/miguel/Documents/Mecenas/mecenas/src/main/java/com/mecenas/dataobjects/Source.java
/Users/miguel/Documents/Mecenas/mecenas/src/main/java/com/mecenas/Main.java
/Users/miguel/Documents/Mecenas/mecenas/src/main/java/com/mecenas/dataobjects/ArtEntityType.java
/Users/miguel/Documents/Mecenas/mecenas/src/main/java/com/mecenas/dataobjects/Entity.java
/Users/miguel/Documents/Mecenas/mecenas/src/main/java/com/mecenas/webservice/MyController.java
/Users/miguel/Documents/Mecenas/mecenas/src/main/java/com/mecenas/webservice/CoordinatorResult.java
